{
  "name": "accesstoken",
  "base": "AccessToken",
  "idInjection": true,
  "options": {
    "validateUpsert": true
  },
  "properties": {
    "ttl": {
      "type": "number"
    },
    "userId": {
      "type": "number",
      "required": true
    }
  },
  "validations": [],
  "relations": {
    "user": {
      "type": "belongsTo",
      "model": "user",
      "foreignKey": ""
    }
  },
  "acls": [],
  "methods": {}
}
